[08:42:54][INFO]<UI Automation> 最终的devicesList=[]
[08:42:54][DEBUG]<UI Automation> /Users/ketangchen/Documents/uiAutoTest20240428/UI/Report
[08:42:54][INFO]<UI Automation> 测试开始
[08:42:54][ERROR]<UI Automation> 未找到设备，测试结束
[08:42:54][INFO]<UI Automation> 跳过发送邮件
[08:46:22][INFO]<UI Automation> 最终的devicesList=[]
[08:46:22][INFO]<UI Automation> 测试开始
[08:46:22][ERROR]<UI Automation> 未找到设备，测试结束
[08:46:22][INFO]<UI Automation> 跳过发送邮件
[09:40:25][INFO]<UI Automation> 最终的devicesList=[]
[09:40:25][INFO]<UI Automation> 测试开始
[09:40:25][ERROR]<UI Automation> 未找到设备，测试结束
[09:40:25][INFO]<UI Automation> 跳过发送邮件
[10:35:36][INFO]<UI Automation> 最终的devicesList=[]
[10:35:36][INFO]<UI Automation> 测试开始
[10:35:36][ERROR]<UI Automation> 未找到设备，测试结束
[10:35:36][INFO]<UI Automation> 跳过发送邮件
[10:38:25][INFO]<UI Automation> 最终的devicesList=[]
[10:40:18][INFO]<UI Automation> 测试开始
[11:13:19][INFO]<UI Automation> 最终的devicesList=[]
[11:13:19][INFO]<UI Automation> 测试开始
[11:13:19][ERROR]<UI Automation> 未找到设备，测试结束
[11:13:19][INFO]<UI Automation> 跳过发送邮件
[11:13:34][INFO]<UI Automation> 最终的devicesList=[]
[11:13:34][INFO]<UI Automation> 测试开始
[11:13:34][ERROR]<UI Automation> 未找到设备，测试结束
[11:13:34][INFO]<UI Automation> 跳过发送邮件
[11:13:40][INFO]<UI Automation> 最终的devicesList=[]
[11:13:40][INFO]<UI Automation> 测试开始
[11:13:40][ERROR]<UI Automation> 未找到设备，测试结束
[11:13:40][INFO]<UI Automation> 跳过发送邮件
[11:13:49][INFO]<UI Automation> 最终的devicesList=[]
[11:13:49][INFO]<UI Automation> 测试开始
[11:13:49][ERROR]<UI Automation> 未找到设备，测试结束
[11:13:49][INFO]<UI Automation> 跳过发送邮件
[11:15:40][INFO]<UI Automation> 最终的devicesList=[]
[11:15:40][INFO]<UI Automation> 测试开始
[11:15:40][ERROR]<UI Automation> 未找到设备，测试结束
[11:15:40][INFO]<UI Automation> 跳过发送邮件
[11:15:43][INFO]<UI Automation> 最终的devicesList=[]
[11:15:43][INFO]<UI Automation> 测试开始
[11:15:43][ERROR]<UI Automation> 未找到设备，测试结束
[11:15:43][INFO]<UI Automation> 跳过发送邮件
[11:15:44][INFO]<UI Automation> 最终的devicesList=[]
[11:15:44][INFO]<UI Automation> 测试开始
[11:15:44][ERROR]<UI Automation> 未找到设备，测试结束
[11:15:44][INFO]<UI Automation> 跳过发送邮件
[11:15:46][INFO]<UI Automation> 最终的devicesList=[]
[11:15:46][INFO]<UI Automation> 测试开始
[11:15:46][ERROR]<UI Automation> 未找到设备，测试结束
[11:15:46][INFO]<UI Automation> 跳过发送邮件
[11:15:47][INFO]<UI Automation> 最终的devicesList=[]
[11:15:47][INFO]<UI Automation> 测试开始
[11:15:47][ERROR]<UI Automation> 未找到设备，测试结束
[11:15:47][INFO]<UI Automation> 跳过发送邮件
[11:15:50][INFO]<UI Automation> 最终的devicesList=[]
[11:15:50][INFO]<UI Automation> 测试开始
[11:15:50][ERROR]<UI Automation> 未找到设备，测试结束
[11:15:50][INFO]<UI Automation> 跳过发送邮件
[11:15:52][INFO]<UI Automation> 最终的devicesList=[]
[11:15:52][INFO]<UI Automation> 测试开始
[11:15:52][ERROR]<UI Automation> 未找到设备，测试结束
[11:15:52][INFO]<UI Automation> 跳过发送邮件
[11:15:54][INFO]<UI Automation> 最终的devicesList=[]
[11:15:54][INFO]<UI Automation> 测试开始
[11:15:54][ERROR]<UI Automation> 未找到设备，测试结束
[11:15:54][INFO]<UI Automation> 跳过发送邮件
[11:15:56][INFO]<UI Automation> 最终的devicesList=[]
[11:15:56][INFO]<UI Automation> 测试开始
[11:15:56][ERROR]<UI Automation> 未找到设备，测试结束
[11:15:56][INFO]<UI Automation> 跳过发送邮件
[02:00:56][INFO]<UI Automation> 设备571fa925被添加到deviceslist中
[02:00:56][INFO]<UI Automation> 最终的devicesList=['571fa925']
[02:00:56][INFO]<UI Automation> 测试开始
[02:00:56][INFO]<UI Automation> 启动进程池
[02:00:56][INFO]<UI Automation> 进入1进程,devicename=571fa925
[02:00:57][INFO]<UI Automation> 设备571fa925连接成功
[02:00:57][INFO]<UI Automation> 设备571fa925开始安装apk
[02:00:57][INFO]<UI Automation> 571fa925设备跳过PushAPK2Device步骤
[02:00:57][INFO]<UI Automation> 571fa925进入StartAPP函数
[02:00:59][ERROR]<UI Automation> 571fa925未运行测试。
[02:00:59][INFO]<UI Automation> 进程回收完毕
[02:00:59][INFO]<UI Automation> 测试结束
[02:00:59][INFO]<UI Automation> 跳过发送邮件
[02:05:32][INFO]<UI Automation> 设备571fa925被添加到deviceslist中
[02:05:32][INFO]<UI Automation> 最终的devicesList=['571fa925']
[02:05:32][INFO]<UI Automation> 测试开始
[02:05:32][INFO]<UI Automation> 启动进程池
[02:05:32][INFO]<UI Automation> 进入1进程,devicename=571fa925
[02:05:34][INFO]<UI Automation> 设备571fa925连接成功
[02:05:34][INFO]<UI Automation> 设备571fa925开始安装apk
[02:05:34][INFO]<UI Automation> 571fa925设备跳过PushAPK2Device步骤
[02:05:34][INFO]<UI Automation> 571fa925进入StartAPP函数
[02:05:35][ERROR]<UI Automation> 571fa925未运行测试。
[02:05:35][INFO]<UI Automation> 进程回收完毕
[02:05:35][INFO]<UI Automation> 测试结束
[02:05:35][INFO]<UI Automation> 跳过发送邮件
[02:13:12][INFO]<UI Automation> 设备571fa925被添加到deviceslist中
[02:13:12][INFO]<UI Automation> 最终的devicesList=['571fa925']
[02:13:12][INFO]<UI Automation> 测试开始
[02:13:12][INFO]<UI Automation> 启动进程池
[02:13:12][INFO]<UI Automation> 进入1进程,devicename=571fa925
[02:13:13][INFO]<UI Automation> 设备571fa925连接成功
[02:13:13][INFO]<UI Automation> 设备571fa925开始安装apk
[02:13:13][INFO]<UI Automation> 571fa925设备跳过PushAPK2Device步骤
[02:14:34][INFO]<UI Automation> 571fa925进入StartAPP函数
[02:20:52][INFO]<UI Automation> 设备571fa925被添加到deviceslist中
[02:20:52][INFO]<UI Automation> 最终的devicesList=['571fa925']
[02:20:52][INFO]<UI Automation> 测试开始
[02:20:52][INFO]<UI Automation> 启动进程池
[02:20:52][INFO]<UI Automation> 进入1进程,devicename=571fa925
[02:20:53][INFO]<UI Automation> 设备571fa925连接成功
[02:20:53][INFO]<UI Automation> 设备571fa925开始安装apk
[02:20:53][INFO]<UI Automation> 571fa925设备跳过PushAPK2Device步骤
[03:19:35][INFO]<UI Automation> 设备571fa925被添加到deviceslist中
[03:19:35][INFO]<UI Automation> 最终的devicesList=['571fa925']
[03:19:35][INFO]<UI Automation> 测试开始
[03:19:35][INFO]<UI Automation> 启动进程池
[03:19:35][INFO]<UI Automation> 进入1进程,devicename=571fa925
[03:19:36][INFO]<UI Automation> 设备571fa925连接成功
[03:19:36][INFO]<UI Automation> 设备571fa925开始安装apk
[03:19:36][INFO]<UI Automation> 571fa925设备跳过PushAPK2Device步骤
[03:19:36][INFO]<UI Automation> 571fa925进入StartAPP函数
[03:19:37][ERROR]<UI Automation> 571fa925未运行测试。
[03:19:37][INFO]<UI Automation> 进程回收完毕
[03:19:37][INFO]<UI Automation> 测试结束
[03:19:37][INFO]<UI Automation> 跳过发送邮件
[03:22:32][INFO]<UI Automation> 设备571fa925被添加到deviceslist中
[03:22:32][INFO]<UI Automation> 最终的devicesList=['571fa925']
[03:22:32][INFO]<UI Automation> 测试开始
[03:22:32][INFO]<UI Automation> 启动进程池
[03:22:32][INFO]<UI Automation> 进入1进程,devicename=571fa925
[03:22:34][INFO]<UI Automation> 设备571fa925连接成功
[03:22:34][INFO]<UI Automation> 设备571fa925开始安装apk
[03:22:34][INFO]<UI Automation> 571fa925设备跳过PushAPK2Device步骤
[03:22:43][INFO]<UI Automation> 571fa925进入StartAPP函数
[03:23:39][INFO]<UI Automation> 设备571fa925被添加到deviceslist中
[03:23:39][INFO]<UI Automation> 最终的devicesList=['571fa925']
[03:23:39][INFO]<UI Automation> 测试开始
[03:23:39][INFO]<UI Automation> 启动进程池
[03:23:39][INFO]<UI Automation> 进入1进程,devicename=571fa925
[03:24:26][INFO]<UI Automation> 设备571fa925连接成功
[03:24:39][INFO]<UI Automation> 设备571fa925开始安装apk
[03:25:03][INFO]<UI Automation> 571fa925设备跳过PushAPK2Device步骤
[03:25:19][INFO]<UI Automation> 571fa925进入StartAPP函数
[03:25:41][ERROR]<UI Automation> 571fa925未运行测试。
[03:25:46][INFO]<UI Automation> 进程回收完毕
[03:25:46][INFO]<UI Automation> 测试结束
[03:25:46][INFO]<UI Automation> 跳过发送邮件
[09:42:25][INFO]<UI Automation> 设备571fa925被添加到deviceslist中
[09:42:25][INFO]<UI Automation> 最终的devicesList=['571fa925']
[09:42:25][INFO]<UI Automation> 测试开始
[09:42:25][INFO]<UI Automation> 启动进程池
[09:42:26][INFO]<UI Automation> 进入1进程,devicename=571fa925
[09:42:35][INFO]<UI Automation> 设备571fa925连接成功
[09:42:42][INFO]<UI Automation> 设备571fa925开始安装apk
[09:42:45][INFO]<UI Automation> 571fa925设备跳过PushAPK2Device步骤
[09:43:49][INFO]<UI Automation> 设备571fa925被添加到deviceslist中
[09:43:49][INFO]<UI Automation> 最终的devicesList=['571fa925']
[09:43:49][INFO]<UI Automation> 测试开始
[09:43:49][INFO]<UI Automation> 启动进程池
[09:43:49][INFO]<UI Automation> 进入1进程,devicename=571fa925
[09:43:51][INFO]<UI Automation> 设备571fa925连接成功
[09:43:51][INFO]<UI Automation> 设备571fa925开始安装apk
[09:43:51][INFO]<UI Automation> 571fa925设备跳过PushAPK2Device步骤
[09:45:35][INFO]<UI Automation> 设备571fa925被添加到deviceslist中
[09:45:35][INFO]<UI Automation> 最终的devicesList=['571fa925']
[09:45:35][INFO]<UI Automation> 测试开始
[09:45:35][INFO]<UI Automation> 启动进程池
[09:45:35][INFO]<UI Automation> 进入1进程,devicename=571fa925
[09:45:36][INFO]<UI Automation> 设备571fa925连接成功
[09:45:37][INFO]<UI Automation> 设备571fa925开始安装apk
[09:45:37][INFO]<UI Automation> 571fa925设备跳过PushAPK2Device步骤
[09:59:32][INFO]<UI Automation> 设备571fa925被添加到deviceslist中
[09:59:32][INFO]<UI Automation> 最终的devicesList=['571fa925']
[09:59:32][INFO]<UI Automation> 测试开始
[09:59:32][INFO]<UI Automation> 启动进程池
[09:59:32][INFO]<UI Automation> 进入1进程,devicename=571fa925
[09:59:33][INFO]<UI Automation> 设备571fa925连接成功
[09:59:33][INFO]<UI Automation> 设备571fa925开始安装apk
[09:59:33][INFO]<UI Automation> 571fa925设备跳过PushAPK2Device步骤
[10:12:25][INFO]<UI Automation> 设备571fa925被添加到deviceslist中
[10:12:25][INFO]<UI Automation> 最终的devicesList=['571fa925']
[10:12:25][INFO]<UI Automation> 测试开始
[10:12:25][INFO]<UI Automation> 启动进程池
[10:12:25][INFO]<UI Automation> 进入1进程,devicename=571fa925
[10:12:26][INFO]<UI Automation> 设备571fa925连接成功
[10:12:26][INFO]<UI Automation> 设备571fa925开始安装apk
[10:12:26][INFO]<UI Automation> 571fa925设备跳过PushAPK2Device步骤
[10:31:36][INFO]<UI Automation> 设备571fa925被添加到deviceslist中
[10:31:36][INFO]<UI Automation> 最终的devicesList=['571fa925']
[10:31:36][INFO]<UI Automation> 测试开始
[10:31:36][INFO]<UI Automation> 启动进程池
[10:31:36][INFO]<UI Automation> 进入1进程,devicename=571fa925
[10:31:38][INFO]<UI Automation> 设备571fa925连接成功
[10:31:38][INFO]<UI Automation> 设备571fa925开始安装apk
[10:31:38][INFO]<UI Automation> 571fa925设备跳过PushAPK2Device步骤
[10:32:34][INFO]<UI Automation> 运行失败，原因是：[Errno 2] No such file or directory: 'idevice_id': 'idevice_id'
[10:32:39][ERROR]<UI Automation> 571fa925未运行测试。
[10:32:45][INFO]<UI Automation> 进程回收完毕
[10:32:45][INFO]<UI Automation> 测试结束
[10:32:45][INFO]<UI Automation> 跳过发送邮件
