[08:22:37][INFO]<UI Automation> 设备571fa925被添加到deviceslist中
[08:22:37][INFO]<UI Automation> 最终的devicesList=['571fa925']
[08:22:37][INFO]<UI Automation> 测试开始
[08:22:37][INFO]<UI Automation> 启动进程池
[08:22:37][INFO]<UI Automation> 进入1进程,devicename=571fa925
[08:22:38][INFO]<UI Automation> 设备571fa925连接成功
[08:22:38][INFO]<UI Automation> 设备571fa925开始安装apk
[08:22:38][INFO]<UI Automation> 571fa925设备跳过PushAPK2Device步骤
[08:22:38][INFO]<UI Automation> 运行失败，原因是：[Errno 2] No such file or directory: 'idevice_id': 'idevice_id'
[08:22:39][ERROR]<UI Automation> 571fa925未运行测试。
[08:22:39][INFO]<UI Automation> 进程回收完毕
[08:22:39][INFO]<UI Automation> 测试结束
[08:22:39][INFO]<UI Automation> 跳过发送邮件
[08:23:32][INFO]<UI Automation> 设备571fa925被添加到deviceslist中
[08:23:32][INFO]<UI Automation> 最终的devicesList=['571fa925']
[08:23:32][INFO]<UI Automation> 测试开始
[08:23:32][INFO]<UI Automation> 启动进程池
[08:23:32][INFO]<UI Automation> 进入1进程,devicename=571fa925
[08:23:34][INFO]<UI Automation> 设备571fa925连接成功
[08:23:34][INFO]<UI Automation> 设备571fa925开始安装apk
[08:23:34][INFO]<UI Automation> 571fa925设备跳过PushAPK2Device步骤
[08:26:21][INFO]<UI Automation> 设备571fa925被添加到deviceslist中
[08:26:21][INFO]<UI Automation> 最终的devicesList=['571fa925']
[08:26:21][INFO]<UI Automation> 测试开始
[08:26:21][INFO]<UI Automation> 启动进程池
[08:26:21][INFO]<UI Automation> 进入1进程,devicename=571fa925
[08:26:22][INFO]<UI Automation> 设备571fa925连接成功
[08:26:22][INFO]<UI Automation> 设备571fa925开始安装apk
[08:26:22][INFO]<UI Automation> 571fa925设备跳过PushAPK2Device步骤
[08:38:16][INFO]<UI Automation> 设备571fa925被添加到deviceslist中
[08:38:16][INFO]<UI Automation> 最终的devicesList=['571fa925']
[08:38:16][INFO]<UI Automation> 测试开始
[08:38:16][INFO]<UI Automation> 启动进程池
[08:38:17][INFO]<UI Automation> 进入1进程,devicename=571fa925
[08:38:18][INFO]<UI Automation> 设备571fa925连接成功
[08:38:18][INFO]<UI Automation> 设备571fa925开始安装apk
[08:38:18][INFO]<UI Automation> 571fa925设备跳过PushAPK2Device步骤
[08:39:02][INFO]<UI Automation> 设备571fa925被添加到deviceslist中
[08:39:02][INFO]<UI Automation> 最终的devicesList=['571fa925']
[08:39:02][INFO]<UI Automation> 测试开始
[08:39:02][INFO]<UI Automation> 启动进程池
[08:39:03][INFO]<UI Automation> 进入1进程,devicename=571fa925
[08:39:04][INFO]<UI Automation> 设备571fa925连接成功
[08:39:04][INFO]<UI Automation> 设备571fa925开始安装apk
[08:39:04][INFO]<UI Automation> 571fa925设备跳过PushAPK2Device步骤
[08:40:37][INFO]<UI Automation> 设备571fa925被添加到deviceslist中
[08:40:37][INFO]<UI Automation> 最终的devicesList=['571fa925']
[08:40:37][INFO]<UI Automation> 测试开始
[08:40:37][INFO]<UI Automation> 启动进程池
[08:40:37][INFO]<UI Automation> 进入1进程,devicename=571fa925
[08:40:38][INFO]<UI Automation> 设备571fa925连接成功
[08:40:38][INFO]<UI Automation> 设备571fa925开始安装apk
[08:40:38][INFO]<UI Automation> 571fa925设备跳过PushAPK2Device步骤
[08:45:16][INFO]<UI Automation> 设备571fa925被添加到deviceslist中
[08:45:16][INFO]<UI Automation> 最终的devicesList=['571fa925']
[08:45:16][INFO]<UI Automation> 测试开始
[08:45:16][INFO]<UI Automation> 启动进程池
[08:45:16][INFO]<UI Automation> 进入1进程,devicename=571fa925
[08:45:17][INFO]<UI Automation> 设备571fa925连接成功
[08:45:17][INFO]<UI Automation> 设备571fa925开始安装apk
[08:45:17][INFO]<UI Automation> 571fa925设备跳过PushAPK2Device步骤
[08:47:39][INFO]<UI Automation> 设备571fa925被添加到deviceslist中
[08:47:39][INFO]<UI Automation> 最终的devicesList=['571fa925']
[08:47:39][INFO]<UI Automation> 测试开始
[08:47:39][INFO]<UI Automation> 启动进程池
[08:47:39][INFO]<UI Automation> 进入1进程,devicename=571fa925
[08:47:40][INFO]<UI Automation> 设备571fa925连接成功
[08:47:40][INFO]<UI Automation> 设备571fa925开始安装apk
[08:47:40][INFO]<UI Automation> 571fa925设备跳过PushAPK2Device步骤
[08:47:41][INFO]<UI Automation> 进入571fa925的RunTestCase
[08:47:41][INFO]<UI Automation> 进程回收完毕
[08:47:41][INFO]<UI Automation> 测试结束
[08:47:41][INFO]<UI Automation> 跳过发送邮件
[08:52:36][INFO]<UI Automation> 设备571fa925被添加到deviceslist中
[08:52:36][INFO]<UI Automation> 最终的devicesList=['571fa925']
[08:52:36][INFO]<UI Automation> 测试开始
[08:52:36][INFO]<UI Automation> 启动进程池
[08:52:36][INFO]<UI Automation> 进入1进程,devicename=571fa925
[08:52:37][INFO]<UI Automation> 设备571fa925连接成功
[08:52:37][INFO]<UI Automation> 设备571fa925开始安装apk
[08:52:37][INFO]<UI Automation> 571fa925设备跳过PushAPK2Device步骤
[08:52:37][INFO]<UI Automation> 设备品牌为：Xiaomi
[08:52:38][INFO]<UI Automation> 进入571fa925的RunTestCase
[08:52:38][INFO]<UI Automation> 进程回收完毕
[08:52:38][INFO]<UI Automation> 测试结束
[08:52:38][INFO]<UI Automation> 跳过发送邮件
[09:37:54][INFO]<UI Automation> 设备571fa925被添加到deviceslist中
[09:37:54][INFO]<UI Automation> 最终的devicesList=['571fa925']
[09:37:54][INFO]<UI Automation> 测试开始
[09:37:54][INFO]<UI Automation> 启动进程池
[09:37:54][INFO]<UI Automation> 进入1进程,devicename=571fa925
[09:53:20][INFO]<UI Automation> 设备571fa925被添加到deviceslist中
[09:53:20][INFO]<UI Automation> 最终的devicesList=['571fa925']
[09:53:20][INFO]<UI Automation> 测试开始
[09:53:20][INFO]<UI Automation> 启动进程池
[09:53:20][INFO]<UI Automation> 进入1进程,devicename=571fa925
[09:53:22][INFO]<UI Automation> 设备571fa925连接成功
[09:53:22][INFO]<UI Automation> 设备571fa925开始安装apk
[09:53:22][INFO]<UI Automation> 571fa925设备跳过PushAPK2Device步骤
[09:53:22][INFO]<UI Automation> 设备品牌为：Xiaomi
[09:53:22][INFO]<UI Automation> 运行失败，原因是：name 'MultiAdb' is not defined
[09:53:23][ERROR]<UI Automation> 571fa925未运行测试。
[09:53:23][INFO]<UI Automation> 进程回收完毕
[09:53:23][INFO]<UI Automation> 测试结束
[09:53:23][INFO]<UI Automation> 跳过发送邮件
[09:53:33][INFO]<UI Automation> 设备571fa925被添加到deviceslist中
[09:53:33][INFO]<UI Automation> 最终的devicesList=['571fa925']
[09:53:33][INFO]<UI Automation> 测试开始
[09:53:33][INFO]<UI Automation> 启动进程池
[09:53:34][INFO]<UI Automation> 进入1进程,devicename=571fa925
[09:53:42][INFO]<UI Automation> 设备571fa925连接成功
[09:53:45][INFO]<UI Automation> 设备571fa925开始安装apk
[09:53:47][INFO]<UI Automation> 571fa925设备跳过PushAPK2Device步骤
[09:53:51][INFO]<UI Automation> 设备品牌为：Xiaomi
[09:55:39][INFO]<UI Automation> 设备571fa925被添加到deviceslist中
[09:55:39][INFO]<UI Automation> 最终的devicesList=['571fa925']
[09:55:39][INFO]<UI Automation> 测试开始
[09:55:39][INFO]<UI Automation> 启动进程池
[09:55:39][INFO]<UI Automation> 进入1进程,devicename=571fa925
[09:55:40][INFO]<UI Automation> 设备571fa925连接成功
[09:55:40][INFO]<UI Automation> 设备571fa925开始安装apk
[09:55:40][INFO]<UI Automation> 571fa925设备跳过PushAPK2Device步骤
[09:55:40][INFO]<UI Automation> 设备品牌为：Xiaomi
[09:55:40][INFO]<UI Automation> 运行失败，原因是：'module' object is not callable
[09:55:41][ERROR]<UI Automation> 571fa925未运行测试。
[09:55:41][INFO]<UI Automation> 进程回收完毕
[09:55:41][INFO]<UI Automation> 测试结束
[09:55:41][INFO]<UI Automation> 跳过发送邮件
[09:56:00][INFO]<UI Automation> 设备571fa925被添加到deviceslist中
[09:56:00][INFO]<UI Automation> 最终的devicesList=['571fa925']
[09:56:00][INFO]<UI Automation> 测试开始
[09:56:00][INFO]<UI Automation> 启动进程池
[09:56:00][INFO]<UI Automation> 进入1进程,devicename=571fa925
[09:56:01][INFO]<UI Automation> 设备571fa925连接成功
[09:56:01][INFO]<UI Automation> 设备571fa925开始安装apk
[09:56:01][INFO]<UI Automation> 571fa925设备跳过PushAPK2Device步骤
[09:56:01][INFO]<UI Automation> 设备品牌为：Xiaomi
[09:56:05][INFO]<UI Automation> 运行失败，原因是：'module' object is not callable
[09:56:06][ERROR]<UI Automation> 571fa925未运行测试。
[09:56:06][INFO]<UI Automation> 进程回收完毕
[09:56:06][INFO]<UI Automation> 测试结束
[09:56:06][INFO]<UI Automation> 跳过发送邮件
[09:56:16][INFO]<UI Automation> 设备571fa925被添加到deviceslist中
[09:56:16][INFO]<UI Automation> 最终的devicesList=['571fa925']
[09:56:16][INFO]<UI Automation> 测试开始
[09:56:16][INFO]<UI Automation> 启动进程池
[09:56:16][INFO]<UI Automation> 进入1进程,devicename=571fa925
[09:56:17][INFO]<UI Automation> 设备571fa925连接成功
[09:56:17][INFO]<UI Automation> 设备571fa925开始安装apk
[09:56:17][INFO]<UI Automation> 571fa925设备跳过PushAPK2Device步骤
[09:56:17][INFO]<UI Automation> 设备品牌为：Xiaomi
[09:56:22][INFO]<UI Automation> 进入571fa925的RunTestCase
[09:56:22][INFO]<UI Automation> 进程回收完毕
[09:56:22][INFO]<UI Automation> 测试结束
[09:56:22][INFO]<UI Automation> 跳过发送邮件
[09:56:31][INFO]<UI Automation> 设备571fa925被添加到deviceslist中
[09:56:31][INFO]<UI Automation> 最终的devicesList=['571fa925']
[09:56:31][INFO]<UI Automation> 测试开始
[09:56:31][INFO]<UI Automation> 启动进程池
[09:56:31][INFO]<UI Automation> 进入1进程,devicename=571fa925
[09:56:32][INFO]<UI Automation> 设备571fa925连接成功
[09:56:32][INFO]<UI Automation> 设备571fa925开始安装apk
[09:56:32][INFO]<UI Automation> 571fa925设备跳过PushAPK2Device步骤
[09:56:32][INFO]<UI Automation> 设备品牌为：Xiaomi
[09:56:37][INFO]<UI Automation> 进入571fa925的RunTestCase
[09:56:37][INFO]<UI Automation> 进程回收完毕
[09:56:37][INFO]<UI Automation> 测试结束
[09:56:37][INFO]<UI Automation> 跳过发送邮件
[09:56:53][INFO]<UI Automation> 设备571fa925被添加到deviceslist中
[09:56:53][INFO]<UI Automation> 最终的devicesList=['571fa925']
[09:56:53][INFO]<UI Automation> 测试开始
[09:56:53][INFO]<UI Automation> 启动进程池
[09:56:53][INFO]<UI Automation> 进入1进程,devicename=571fa925
[09:56:55][INFO]<UI Automation> 设备571fa925连接成功
[09:56:55][INFO]<UI Automation> 设备571fa925开始安装apk
[09:56:55][INFO]<UI Automation> 571fa925设备跳过PushAPK2Device步骤
[09:56:55][INFO]<UI Automation> 设备品牌为：Xiaomi
[09:57:04][INFO]<UI Automation> 进入571fa925的RunTestCase
[09:57:04][INFO]<UI Automation> 进程回收完毕
[09:57:04][INFO]<UI Automation> 测试结束
[09:57:04][INFO]<UI Automation> 跳过发送邮件
[09:57:44][INFO]<UI Automation> 设备571fa925被添加到deviceslist中
[09:57:44][INFO]<UI Automation> 最终的devicesList=['571fa925']
[09:57:44][INFO]<UI Automation> 测试开始
[09:57:44][INFO]<UI Automation> 启动进程池
[09:57:44][INFO]<UI Automation> 进入1进程,devicename=571fa925
[09:57:51][INFO]<UI Automation> 设备571fa925连接成功
[09:57:53][INFO]<UI Automation> 设备571fa925开始安装apk
[09:57:55][INFO]<UI Automation> 571fa925设备跳过PushAPK2Device步骤
[09:57:58][INFO]<UI Automation> 设备品牌为：Xiaomi
[09:59:38][INFO]<UI Automation> 进入571fa925的RunTestCase
[09:59:38][INFO]<UI Automation> 进程回收完毕
[09:59:38][INFO]<UI Automation> 测试结束
[09:59:38][INFO]<UI Automation> 跳过发送邮件
[11:24:04][INFO]<UI Automation> 设备571fa925被添加到deviceslist中
[11:24:04][INFO]<UI Automation> 最终的devicesList=['571fa925']
[11:24:04][INFO]<UI Automation> 测试开始
[11:24:04][INFO]<UI Automation> 启动进程池
[11:24:05][INFO]<UI Automation> 进入1进程,devicename=571fa925
[11:24:06][INFO]<UI Automation> 设备571fa925连接成功
[11:24:06][INFO]<UI Automation> 设备571fa925开始安装apk
[11:24:06][INFO]<UI Automation> 571fa925设备跳过PushAPK2Device步骤
[11:24:06][INFO]<UI Automation> 设备品牌为：Xiaomi
[11:24:17][INFO]<UI Automation> 进入571fa925的RunTestCase
[11:24:17][INFO]<UI Automation> 进程回收完毕
[11:24:17][INFO]<UI Automation> 测试结束
[11:24:17][INFO]<UI Automation> 跳过发送邮件
[11:39:36][INFO]<UI Automation> 设备571fa925被添加到deviceslist中
[11:39:36][INFO]<UI Automation> 最终的devicesList=['571fa925']
[11:39:36][INFO]<UI Automation> 测试开始
[11:39:36][INFO]<UI Automation> 启动进程池
[11:39:36][INFO]<UI Automation> 进入1进程,devicename=571fa925
[11:39:37][INFO]<UI Automation> 设备571fa925连接成功
[11:39:37][INFO]<UI Automation> 设备571fa925开始安装apk
[11:39:37][INFO]<UI Automation> 571fa925设备跳过PushAPK2Device步骤
[11:39:37][INFO]<UI Automation> 设备品牌为：Xiaomi
[11:39:37][INFO]<UI Automation> 运行失败，原因是：an integer is required (got type time.struct_time)
[11:39:38][ERROR]<UI Automation> 571fa925未运行测试。
[11:39:38][INFO]<UI Automation> 进程回收完毕
[11:39:38][INFO]<UI Automation> 测试结束
[11:39:38][INFO]<UI Automation> 跳过发送邮件
[11:40:40][INFO]<UI Automation> 设备571fa925被添加到deviceslist中
[11:40:40][INFO]<UI Automation> 最终的devicesList=['571fa925']
[11:40:40][INFO]<UI Automation> 测试开始
[11:40:40][INFO]<UI Automation> 启动进程池
[11:40:40][INFO]<UI Automation> 进入1进程,devicename=571fa925
[11:41:05][INFO]<UI Automation> 设备571fa925连接成功
[11:41:07][INFO]<UI Automation> 设备571fa925开始安装apk
[11:41:09][INFO]<UI Automation> 571fa925设备跳过PushAPK2Device步骤
[11:41:11][INFO]<UI Automation> 设备品牌为：Xiaomi
[11:41:29][INFO]<UI Automation> 运行失败，原因是：an integer is required (got type time.struct_time)
[11:42:12][INFO]<UI Automation> 设备571fa925被添加到deviceslist中
[11:42:12][INFO]<UI Automation> 最终的devicesList=['571fa925']
[11:42:12][INFO]<UI Automation> 测试开始
[11:42:12][INFO]<UI Automation> 启动进程池
[11:42:12][INFO]<UI Automation> 进入1进程,devicename=571fa925
[11:42:21][INFO]<UI Automation> 设备571fa925连接成功
[11:42:23][INFO]<UI Automation> 设备571fa925开始安装apk
[11:42:25][INFO]<UI Automation> 571fa925设备跳过PushAPK2Device步骤
[11:42:41][INFO]<UI Automation> 设备571fa925被添加到deviceslist中
[11:42:41][INFO]<UI Automation> 最终的devicesList=['571fa925']
[11:42:41][INFO]<UI Automation> 测试开始
[11:42:41][INFO]<UI Automation> 启动进程池
[11:42:41][INFO]<UI Automation> 进入1进程,devicename=571fa925
[11:42:42][INFO]<UI Automation> 设备571fa925连接成功
[11:42:42][INFO]<UI Automation> 设备571fa925开始安装apk
[11:42:42][INFO]<UI Automation> 571fa925设备跳过PushAPK2Device步骤
[11:42:45][INFO]<UI Automation> 设备品牌为：Xiaomi
[11:44:36][INFO]<UI Automation> 设备571fa925被添加到deviceslist中
[11:44:36][INFO]<UI Automation> 最终的devicesList=['571fa925']
[11:44:36][INFO]<UI Automation> 测试开始
[11:44:36][INFO]<UI Automation> 启动进程池
[11:44:36][INFO]<UI Automation> 进入1进程,devicename=571fa925
[11:44:37][INFO]<UI Automation> 设备571fa925连接成功
[11:44:37][INFO]<UI Automation> 设备571fa925开始安装apk
[11:44:37][INFO]<UI Automation> 571fa925设备跳过PushAPK2Device步骤
[11:44:39][INFO]<UI Automation> 设备品牌为：Xiaomi
[11:46:50][INFO]<UI Automation> 设备571fa925被添加到deviceslist中
[11:46:50][INFO]<UI Automation> 最终的devicesList=['571fa925']
[11:46:50][INFO]<UI Automation> 测试开始
[11:46:50][INFO]<UI Automation> 启动进程池
[11:46:51][INFO]<UI Automation> 进入1进程,devicename=571fa925
[11:46:52][INFO]<UI Automation> 设备571fa925连接成功
[11:46:52][INFO]<UI Automation> 设备571fa925开始安装apk
[11:46:52][INFO]<UI Automation> 571fa925设备跳过PushAPK2Device步骤
[11:49:05][INFO]<UI Automation> 设备品牌为：Xiaomi
[11:50:16][INFO]<UI Automation> 设备571fa925被添加到deviceslist中
[11:50:16][INFO]<UI Automation> 最终的devicesList=['571fa925']
[11:50:16][INFO]<UI Automation> 测试开始
[11:50:16][INFO]<UI Automation> 启动进程池
[11:50:17][INFO]<UI Automation> 进入1进程,devicename=571fa925
[11:50:18][INFO]<UI Automation> 设备571fa925连接成功
[11:50:18][INFO]<UI Automation> 设备571fa925开始安装apk
[11:50:18][INFO]<UI Automation> 571fa925设备跳过PushAPK2Device步骤
[11:50:20][INFO]<UI Automation> 设备品牌为：Xiaomi
[11:54:08][INFO]<UI Automation> 进入571fa925的RunTestCase
[11:54:08][INFO]<UI Automation> 进程回收完毕
[11:54:08][INFO]<UI Automation> 测试结束
[11:54:08][INFO]<UI Automation> 跳过发送邮件
[11:54:14][INFO]<UI Automation> 设备571fa925被添加到deviceslist中
[11:54:14][INFO]<UI Automation> 最终的devicesList=['571fa925']
[11:54:15][INFO]<UI Automation> 测试开始
[11:54:15][INFO]<UI Automation> 启动进程池
[11:54:15][INFO]<UI Automation> 进入1进程,devicename=571fa925
[11:54:16][INFO]<UI Automation> 设备571fa925连接成功
[11:54:16][INFO]<UI Automation> 设备571fa925开始安装apk
[11:54:16][INFO]<UI Automation> 571fa925设备跳过PushAPK2Device步骤
[11:54:19][INFO]<UI Automation> 设备品牌为：Xiaomi
[11:57:22][INFO]<UI Automation> 设备571fa925被添加到deviceslist中
[11:57:22][INFO]<UI Automation> 最终的devicesList=['571fa925']
[11:57:22][INFO]<UI Automation> 测试开始
[11:57:22][INFO]<UI Automation> 启动进程池
[11:57:23][INFO]<UI Automation> 进入1进程,devicename=571fa925
[11:57:24][INFO]<UI Automation> 设备571fa925连接成功
[11:57:24][INFO]<UI Automation> 设备571fa925开始安装apk
[11:57:24][INFO]<UI Automation> 571fa925设备跳过PushAPK2Device步骤
[11:57:27][INFO]<UI Automation> 设备品牌为：Xiaomi
[12:00:03][INFO]<UI Automation> 设备571fa925被添加到deviceslist中
[12:00:03][INFO]<UI Automation> 最终的devicesList=['571fa925']
[12:00:03][INFO]<UI Automation> 测试开始
[12:00:03][INFO]<UI Automation> 启动进程池
[12:00:03][INFO]<UI Automation> 进入1进程,devicename=571fa925
[12:00:04][INFO]<UI Automation> 设备571fa925连接成功
[12:00:04][INFO]<UI Automation> 设备571fa925开始安装apk
[12:00:04][INFO]<UI Automation> 571fa925设备跳过PushAPK2Device步骤
[12:00:04][INFO]<UI Automation> 设备品牌为：Xiaomi
[12:00:17][INFO]<UI Automation> 进入571fa925的RunTestCase
[12:00:17][INFO]<UI Automation> 进程回收完毕
[12:00:17][INFO]<UI Automation> 测试结束
[12:00:17][INFO]<UI Automation> 跳过发送邮件
[12:00:34][INFO]<UI Automation> 设备571fa925被添加到deviceslist中
[12:00:34][INFO]<UI Automation> 最终的devicesList=['571fa925']
[12:00:34][INFO]<UI Automation> 测试开始
[12:00:34][INFO]<UI Automation> 启动进程池
[12:00:34][INFO]<UI Automation> 进入1进程,devicename=571fa925
[12:00:35][INFO]<UI Automation> 设备571fa925连接成功
[12:00:35][INFO]<UI Automation> 设备571fa925开始安装apk
[12:00:35][INFO]<UI Automation> 571fa925设备跳过PushAPK2Device步骤
[12:00:35][INFO]<UI Automation> 设备品牌为：Xiaomi
[12:00:48][INFO]<UI Automation> 进入571fa925的RunTestCase
[12:00:48][INFO]<UI Automation> 进程回收完毕
[12:00:48][INFO]<UI Automation> 测试结束
[12:00:48][INFO]<UI Automation> 跳过发送邮件
[01:59:54][INFO]<UI Automation> 设备571fa925被添加到deviceslist中
[01:59:54][INFO]<UI Automation> 最终的devicesList=['571fa925']
[01:59:54][INFO]<UI Automation> 测试开始
[01:59:54][INFO]<UI Automation> 启动进程池
[01:59:54][INFO]<UI Automation> 进入1进程,devicename=571fa925
[01:59:55][INFO]<UI Automation> 设备571fa925连接成功
[01:59:55][INFO]<UI Automation> 设备571fa925开始安装apk
[01:59:55][INFO]<UI Automation> 571fa925设备跳过PushAPK2Device步骤
[01:59:55][INFO]<UI Automation> 设备品牌为：Xiaomi
[02:00:08][INFO]<UI Automation> 进入571fa925的RunTestCase
[02:00:08][INFO]<UI Automation> 进程回收完毕
[02:00:08][INFO]<UI Automation> 测试结束
[02:00:08][INFO]<UI Automation> 跳过发送邮件
